quarto-project – lpi
…
# using cached version from above...
lpd <- read_csv("data/lpd.csv.gz") |>
  pivot_longer(matches("\\d{4}"), names_to="year", values_to = "abundance_metric") |>
  mutate(abundance_metric = as.numeric(abundance_metric),
         year = as.numeric(year)) |>
  filter(!is.na(abundance_metric)) |>
  distinct()

# counts are not really abundances but oh well...
lpd |> count(Method, sort=TRUE)

# A tibble: 3,664 × 2
   Method                                                                      n
   <chr>                                                                   <int>
 1 Shorebird count area survey                                             69910
 2 Volunteer survey of set routes during peak breeding season              52419
 3 Road count - breeding birds                                             24796
 4 Gill net                                                                20268
 5 Trawl data from demersal (groundfish) research trawl surveys. Only dat… 13107
 6 Unknown                                                                 11318
 7 Large-scale monitoring with standardised methods                         5793
 8 Annual road count - breeding birds                                       4053
 9 SPA                                                                      4021
10 count of individuals                                                     3932
# … with 3,654 more rows
…
# some 4016 distinct citations, though not all entirely distinct
lpd |> count(Citation, sort=TRUE)

# A tibble: 4,014 × 2
   Citation                                                                    n
   <chr>                                                                   <int>
 1 "Environment Canada (2015). \"North American Breeding Bird Survey - Ca… 67316
 2 "Threatened Species Index data portal: BLA (2020). Shorebirds 2020. Bi… 47735
 3 "Threatened Species Index data portal: QWSG (2020). Queensland Wader S… 22372
 4 "ESBR; Naturae Consultoria Ambiental (2020) 1º RELATÓRIO ANUAL - Licen… 20268
 5 "Environment Canada (2014). \"North American Breeding Bird Survey - Ca… 13058
 6 "Brown, S. K., R. Mahon, K. C. T. Zwanenburg, K. R. Ruja, L. W. Clafli… 12402
 7 "RAM Legacy Stock Assessment Database (2021) ‘RAM Legacy Stock Assessm…  9408
 8 "EBCC/BirdLife/RSPB/CSO (2021) Trends of common birds in Europe, 2021 …  5807
 9 "Myers, R. Ransom Myers' Stock Recruitment Database."                    5236
10 "RAM Legacy RAM Legacy Stock Assessment Data Base version 3.0."          4806
# … with 4,004 more rows
…
